// Jest Snapshot v1, https://goo.gl/fbAQLP

exports[`matches previous snapshot 1`] = `
<form
  className="interface"
>
  <div
    className="keypad"
  >
    <input
      className="key"
      onClick={[Function]}
      type="button"
      value={1}
    />
    <input
      className="key"
      onClick={[Function]}
      type="button"
      value={2}
    />
    <input
      className="key"
      onClick={[Function]}
      type="button"
      value={3}
    />
    <input
      className="key"
      onClick={[Function]}
      type="button"
      value={4}
    />
    <input
      className="key"
      onClick={[Function]}
      type="button"
      value={5}
    />
    <input
      className="key"
      onClick={[Function]}
      type="button"
      value={6}
    />
    <input
      className="key"
      onClick={[Function]}
      type="button"
      value={7}
    />
    <input
      className="key"
      onClick={[Function]}
      type="button"
      value={8}
    />
    <input
      className="key"
      onClick={[Function]}
      type="button"
      value={9}
    />
    <input
      className="key"
      onClick={[Function]}
      type="button"
      value="CLR"
    />
    <input
      className="key"
      onClick={[Function]}
      type="button"
      value={0}
    />
    <input
      className="key"
      onClick={[Function]}
      type="button"
      value="⇨"
    />
  </div>
  <div
    className="display"
  >
    <input
      className="textDisplay"
      maxLength="7"
      readOnly={true}
      type="text"
      value=""
    />
    <div
      className="light "
    />
  </div>
  <div>
    <audio
      id="keySND"
      src="key.wav"
    />
    <audio
      id="lockSND"
      src="lock.mp3"
    />
    <audio
      id="unlockSND"
      src="unlock.wav"
    />
    <audio
      id="invalidSND"
      src="invalid.wav"
    />
  </div>
</form>
`;
